[
    {
        "name": "mtdowling/jmespath.php",
        "version": "2.3.0",
        "version_normalized": "2.3.0.0",
        "source": {
            "type": "git",
            "url": "https://github.com/jmespath/jmespath.php.git",
            "reference": "192f93e43c2c97acde7694993ab171b3de284093"
        },
        "dist": {
            "type": "zip",
            "url": "https://api.github.com/repos/jmespath/jmespath.php/zipball/192f93e43c2c97acde7694993ab171b3de284093",
            "reference": "192f93e43c2c97acde7694993ab171b3de284093",
            "shasum": ""
        },
        "require": {
            "php": ">=5.4.0"
        },
        "require-dev": {
            "phpunit/phpunit": "~4.0"
        },
        "time": "2016-01-05 18:25:05",
        "bin": [
            "bin/jp.php"
        ],
        "type": "library",
        "extra": {
            "branch-alias": {
                "dev-master": "2.0-dev"
            }
        },
        "installation-source": "dist",
        "autoload": {
            "psr-4": {
                "JmesPath\\": "src/"
            },
            "files": [
                "src/JmesPath.php"
            ]
        },
        "notification-url": "https://packagist.org/downloads/",
        "license": [
            "MIT"
        ],
        "authors": [
            {
                "name": "Michael Dowling",
                "email": "mtdowling@gmail.com",
                "homepage": "https://github.com/mtdowling"
            }
        ],
        "description": "Declaratively specify how to extract elements from a JSON document",
        "keywords": [
            "json",
            "jsonpath"
        ]
    },
    {
        "name": "guzzlehttp/promises",
        "version": "1.1.0",
        "version_normalized": "1.1.0.0",
        "source": {
            "type": "git",
            "url": "https://github.com/guzzle/promises.git",
            "reference": "bb9024c526b22f3fe6ae55a561fd70653d470aa8"
        },
        "dist": {
            "type": "zip",
            "url": "https://api.github.com/repos/guzzle/promises/zipball/bb9024c526b22f3fe6ae55a561fd70653d470aa8",
            "reference": "bb9024c526b22f3fe6ae55a561fd70653d470aa8",
            "shasum": ""
        },
        "require": {
            "php": ">=5.5.0"
        },
        "require-dev": {
            "phpunit/phpunit": "~4.0"
        },
        "time": "2016-03-08 01:15:46",
        "type": "library",
        "extra": {
            "branch-alias": {
                "dev-master": "1.0-dev"
            }
        },
        "installation-source": "dist",
        "autoload": {
            "psr-4": {
                "GuzzleHttp\\Promise\\": "src/"
            },
            "files": [
                "src/functions_include.php"
            ]
        },
        "notification-url": "https://packagist.org/downloads/",
        "license": [
            "MIT"
        ],
        "authors": [
            {
                "name": "Michael Dowling",
                "email": "mtdowling@gmail.com",
                "homepage": "https://github.com/mtdowling"
            }
        ],
        "description": "Guzzle promises library",
        "keywords": [
            "promise"
        ]
    },
    {
        "name": "psr/http-message",
        "version": "1.0",
        "version_normalized": "1.0.0.0",
        "source": {
            "type": "git",
            "url": "https://github.com/php-fig/http-message.git",
            "reference": "85d63699f0dbedb190bbd4b0d2b9dc707ea4c298"
        },
        "dist": {
            "type": "zip",
            "url": "https://api.github.com/repos/php-fig/http-message/zipball/85d63699f0dbedb190bbd4b0d2b9dc707ea4c298",
            "reference": "85d63699f0dbedb190bbd4b0d2b9dc707ea4c298",
            "shasum": ""
        },
        "require": {
            "php": ">=5.3.0"
        },
        "time": "2015-05-04 20:22:00",
        "type": "library",
        "extra": {
            "branch-alias": {
                "dev-master": "1.0.x-dev"
            }
        },
        "installation-source": "dist",
        "autoload": {
            "psr-4": {
                "Psr\\Http\\Message\\": "src/"
            }
        },
        "notification-url": "https://packagist.org/downloads/",
        "license": [
            "MIT"
        ],
        "authors": [
            {
                "name": "PHP-FIG",
                "homepage": "http://www.php-fig.org/"
            }
        ],
        "description": "Common interface for HTTP messages",
        "keywords": [
            "http",
            "http-message",
            "psr",
            "psr-7",
            "request",
            "response"
        ]
    },
    {
        "name": "guzzlehttp/psr7",
        "version": "1.2.3",
        "version_normalized": "1.2.3.0",
        "source": {
            "type": "git",
            "url": "https://github.com/guzzle/psr7.git",
            "reference": "2e89629ff057ebb49492ba08e6995d3a6a80021b"
        },
        "dist": {
            "type": "zip",
            "url": "https://api.github.com/repos/guzzle/psr7/zipball/2e89629ff057ebb49492ba08e6995d3a6a80021b",
            "reference": "2e89629ff057ebb49492ba08e6995d3a6a80021b",
            "shasum": ""
        },
        "require": {
            "php": ">=5.4.0",
            "psr/http-message": "~1.0"
        },
        "provide": {
            "psr/http-message-implementation": "1.0"
        },
        "require-dev": {
            "phpunit/phpunit": "~4.0"
        },
        "time": "2016-02-18 21:54:00",
        "type": "library",
        "extra": {
            "branch-alias": {
                "dev-master": "1.0-dev"
            }
        },
        "installation-source": "dist",
        "autoload": {
            "psr-4": {
                "GuzzleHttp\\Psr7\\": "src/"
            },
            "files": [
                "src/functions_include.php"
            ]
        },
        "notification-url": "https://packagist.org/downloads/",
        "license": [
            "MIT"
        ],
        "authors": [
            {
                "name": "Michael Dowling",
                "email": "mtdowling@gmail.com",
                "homepage": "https://github.com/mtdowling"
            }
        ],
        "description": "PSR-7 message implementation",
        "keywords": [
            "http",
            "message",
            "stream",
            "uri"
        ]
    },
    {
        "name": "guzzlehttp/guzzle",
        "version": "6.1.1",
        "version_normalized": "6.1.1.0",
        "source": {
            "type": "git",
            "url": "https://github.com/guzzle/guzzle.git",
            "reference": "c6851d6e48f63b69357cbfa55bca116448140e0c"
        },
        "dist": {
            "type": "zip",
            "url": "https://api.github.com/repos/guzzle/guzzle/zipball/c6851d6e48f63b69357cbfa55bca116448140e0c",
            "reference": "c6851d6e48f63b69357cbfa55bca116448140e0c",
            "shasum": ""
        },
        "require": {
            "guzzlehttp/promises": "~1.0",
            "guzzlehttp/psr7": "~1.1",
            "php": ">=5.5.0"
        },
        "require-dev": {
            "ext-curl": "*",
            "phpunit/phpunit": "~4.0",
            "psr/log": "~1.0"
        },
        "time": "2015-11-23 00:47:50",
        "type": "library",
        "extra": {
            "branch-alias": {
                "dev-master": "6.1-dev"
            }
        },
        "installation-source": "dist",
        "autoload": {
            "files": [
                "src/functions_include.php"
            ],
            "psr-4": {
                "GuzzleHttp\\": "src/"
            }
        },
        "notification-url": "https://packagist.org/downloads/",
        "license": [
            "MIT"
        ],
        "authors": [
            {
                "name": "Michael Dowling",
                "email": "mtdowling@gmail.com",
                "homepage": "https://github.com/mtdowling"
            }
        ],
        "description": "Guzzle is a PHP HTTP client library",
        "homepage": "http://guzzlephp.org/",
        "keywords": [
            "client",
            "curl",
            "framework",
            "http",
            "http client",
            "rest",
            "web service"
        ]
    },
    {
        "name": "aws/aws-sdk-php",
        "version": "3.17.0",
        "version_normalized": "3.17.0.0",
        "source": {
            "type": "git",
            "url": "https://github.com/aws/aws-sdk-php.git",
            "reference": "4853bf1f865f6c6df44db0cd5664319ae806f319"
        },
        "dist": {
            "type": "zip",
            "url": "https://api.github.com/repos/aws/aws-sdk-php/zipball/4853bf1f865f6c6df44db0cd5664319ae806f319",
            "reference": "4853bf1f865f6c6df44db0cd5664319ae806f319",
            "shasum": ""
        },
        "require": {
            "guzzlehttp/guzzle": "~5.3|~6.0.1|~6.1",
            "guzzlehttp/promises": "~1.0",
            "guzzlehttp/psr7": "~1.0",
            "mtdowling/jmespath.php": "~2.2",
            "php": ">=5.5"
        },
        "require-dev": {
            "andrewsville/php-token-reflection": "^1.4",
            "aws/aws-php-sns-message-validator": "~1.0",
            "behat/behat": "~3.0",
            "doctrine/cache": "~1.4",
            "ext-dom": "*",
            "ext-json": "*",
            "ext-openssl": "*",
            "ext-pcre": "*",
            "ext-simplexml": "*",
            "ext-spl": "*",
            "nette/neon": "^2.3",
            "phpunit/phpunit": "~4.0|~5.0",
            "psr/cache": "^1.0"
        },
        "suggest": {
            "aws/aws-php-sns-message-validator": "To validate incoming SNS notifications",
            "doctrine/cache": "To use the DoctrineCacheAdapter",
            "ext-curl": "To send requests using cURL",
            "ext-openssl": "Allows working with CloudFront private distributions and verifying received SNS messages"
        },
        "time": "2016-03-17 23:57:52",
        "type": "library",
        "extra": {
            "branch-alias": {
                "dev-master": "3.0-dev"
            }
        },
        "installation-source": "dist",
        "autoload": {
            "psr-4": {
                "Aws\\": "src/"
            },
            "files": [
                "src/functions.php"
            ]
        },
        "notification-url": "https://packagist.org/downloads/",
        "license": [
            "Apache-2.0"
        ],
        "authors": [
            {
                "name": "Amazon Web Services",
                "homepage": "http://aws.amazon.com"
            }
        ],
        "description": "AWS SDK for PHP - Use Amazon Web Services in your PHP project",
        "homepage": "http://aws.amazon.com/sdkforphp",
        "keywords": [
            "amazon",
            "aws",
            "cloud",
            "dynamodb",
            "ec2",
            "glacier",
            "s3",
            "sdk"
        ]
    }
]
